{
	"info": {
		"_postman_id": "c973f3a5-b63e-4657-bdbe-da9aa34db8a6",
		"name": "Theme park Api",
		"schema": "https://schema.getpostman.com/json/collection/v2.1.0/collection.json"
	},
	"item": [
		{
			"name": "CRUD",
			"item": [
				{
					"name": "Add ride",
					"request": {
						"method": "POST",
						"header": [
							{
								"key": "Content-Type",
								"name": "Content-Type",
								"value": "application/json",
								"type": "text"
							}
						],
						"body": {
							"mode": "raw",
							"raw": "{\n    \"manufacturer\": \"Dacia\",\n    \"model\": \"Logan\",\n    \"build\": 2000\n}",
							"options": {
								"raw": {
									"language": "json"
								}
							}
						},
						"url": {
							"raw": "http://themeparkridesyhem-prod.eba-ph3bkpcb.us-east-1.elasticbeanstalk.com/ride",
							"host": [
								"http://themeparkridesyhem-prod.eba-ph3bkpcb.us-east-1.elasticbeanstalk.com/"
							],
							"path": [
								"ride"
							]
						}
					},
					"response": []
				},
				{
					"name": "Get single ride",
					"request": {
						"method": "GET",
						"header": [],
						"url": {
							"raw": "http://themeparkridesyhem-prod.eba-ph3bkpcb.us-east-1.elasticbeanstalk.com/ride/4",
							"host": [
								"http://themeparkridesyhem-prod.eba-ph3bkpcb.us-east-1.elasticbeanstalk.com/"
							],
							"path": [
								"ride",
								"4"
							]
						}
					},
					"response": []
				}
			]
		},
		{
			"name": "Health",
			"item": [
				{
					"name": "Health",
					"request": {
						"method": "GET",
						"header": [],
						"url": {
							"raw": "http://themeparkridesyhem-prod.eba-ph3bkpcb.us-east-1.elasticbeanstalk.com/actuator/health",
							"host": [
								"http://themeparkridesyhem-prod.eba-ph3bkpcb.us-east-1.elasticbeanstalk.com/"
							],
							"path": [
								"actuator",
								"health"
							]
						}
					},
					"response": []
				}
			]
		}
	]
}
